deploy scripts for deploy CSADEV-160_default created on Mon 06/29/2020 14:55:39.37 by Jasleen Gorowada

deployed on TSTCAFS1.SBA.GOV 2020-06-29 15:41:47 by CNTRSBHUPATHI               
Instructions for deploy CSADEV-160_default:

No specific deploy instructions for this deploy.
No errors are expected.
If rerun then duplicate object messages may be ignored.

If unexpected errors are reported, please execute a "ROLLBACK"
and notify clearly that the script was rolled back for that reason.
Otherwise (If script produces no unexpected results) please exit SQL*Plus to commit the updates.

Please execute using DOS SQL*Plus from a writeable directory for proper logging and error checking.

Hit enter to continue ( or Ctrl+C to abort)...

SQL> set termout on
SQL> -- Deploy component file "D:\dba_oracle_Bitbucket\database_oracle\CDCONLINE\Procedures\PayoutStmtDataSelTSP.sql"
SQL> create or replace
  2  PROCEDURE		 CDCONLINE.PayoutStmtDataSelTSP
  3  (
  4    p_region_num IN CHAR DEFAULT NULL ,
  5    p_cdc_num IN CHAR DEFAULT NULL ,
  6    p_statement_date IN DATE DEFAULT NULL ,
  7    p_SelCur1 OUT SYS_REFCURSOR,
  8    p_SelCur2 OUT SYS_REFCURSOR
  9  )
 10  AS
 11  
 12  BEGIN
 13  
 14  	OPEN  p_SelCur1 FOR
 15  	   SELECT CDCRegnCd CDCRegnCd  ,
 16  		  CDCNmb CDCNmb  ,
 17  		  UPPER(StmtDt) StmtDt	,
 18  		  LoanNmb LoanNmb  ,
 19  		  PrgrmNmb PrgrmNmb  ,
 20  		  UPPER(BorrNm) BorrNm	,
 21  		  DbentrAmt DbentrAmt  ,
 22  		  CDCFeeAmt CDCFeeAmt  ,
 23  		  MultiCDCFeeInd MultiCDCFeeInd  ,
 24  		  WithheldAmt WithheldAmt  ,
 25  		  ACHInd ACHInd  ,
 26  		  ChkACHAmt ChkACHAmt
 27  	     FROM PayoutStmtTbl
 28  	    WHERE  CDCRegnCd = p_region_num
 29  		     AND CDCNmb = p_cdc_num
 30  		     AND StmtDt = p_statement_date
 31  	     ORDER BY UPPER(BorrNm) ;
 32  	--- calculate the statment check/ach Amt
 33  	OPEN  p_SelCur2 FOR
 34  	   SELECT SUM(ChkACHAmt)  total_check_ach_amount
 35  	     FROM PayoutStmtTbl
 36  	    WHERE  CDCRegnCd = p_region_num
 37  		     AND CDCNmb = p_cdc_num
 38  		     AND StmtDt = p_statement_date ;
 39  
 40  EXCEPTION WHEN OTHERS THEN raise_application_error(-20584,'An error was encountered - '||SQLCODE||' -ERROR- '||SQLERRM);
 41  END;
 42  /

Procedure created.

SQL> -- Deploy component file "D:\dba_oracle_Bitbucket\database_oracle\CDCONLINE\Procedures\AppFundsDelCSP.sql"
SQL> create or replace
  2  PROCEDURE		  CDCONLINE.AppFundsDelCSP
  3  (
  4    p_SOD IN CHAR DEFAULT NULL ,
  5    p_RegionNum IN CHAR DEFAULT NULL ,
  6    p_CDC_Cert IN CHAR DEFAULT NULL ,
  7    p_SBA IN NUMBER DEFAULT 0 ,
  8    p_SelCur1 OUT SYS_REFCURSOR
  9  )
 10  AS
 11  
 12  BEGIN
 13  
 14  	DELETE FROM CDCONLINE.TTTempAppFundsTbl;
 15  	-- CDC_App_Funds_R null, '10','468 ',0
 16  	IF p_SBA = 1 THEN
 17  	 INSERT INTO CDCONLINE.TTTempAppFundsTbl (UserLevelRoleID,DistNm,CDCRegnCd,CDCNmb,CDCNm,BorrNm,StmtNm,LoanNmb,PymtRecvDt,SBAFeeAmt,CSAFeeAmt,CDCFeeAmt,LateFeeAmt,IntApplAmt,PrinApplAmt,DiffToEscrowAmt,RefiLoan,CreatUserID,LastUpdtUserID)
 18  	  SELECT sp.UserLevelRoleID UserLevelRoleID  ,
 19  		 UPPER(sp.DistNm) DistNm  ,
 20  		 sp.CDCRegnCd CDCRegnCd  ,
 21  		 sp.CDCNmb CDCNmb  ,
 22  		 UPPER(sp.CDCNm) CDCNm	,
 23  		 UPPER(sp.BorrNm) BorrNm  ,
 24  		 UPPER(sp.StmtNm) StmtNm  ,
 25  		 ap.LoanNmb LoanNmb  ,
 26  		 ap.PymtRecvDDtx PymtRecvDDtx  ,
 27  		 ap.SBAFeeAmt SBAFeeAmt  ,
 28  		 ap.CSAFeeAmt CSAFeeAmt  ,
 29  		 ap.CDCFeeAmt CDCFeeAmt  ,
 30  		 ap.LateFeeAmt LateFeeAmt  ,
 31  		 ap.IntApplAmt IntApplAmt  ,
 32  		 ap.PrinApplAmt PrinApplAmt  ,
 33  		 ap.DiffToEscrowAmt DiffToEscrowAmt  ,
 34  		 NULL RefiLoan	,
 35  			     USER ,
 36  			     USER
 37  	    FROM PortflTbl sp
 38  		   JOIN FundsTbl ap   ON sp.LoanNmb = ap.LoanNmb
 39  	   WHERE  sp.CDCRegnCd = p_RegionNum
 40  		    AND sp.CDCNmb = p_CDC_Cert
 41  	    ORDER BY UPPER(sp.StmtNm);
 42  
 43  	--select * from CDCPortflTbl
 44  	ELSE
 45  	   IF LTRIM(RTRIM(p_SOD)) > 0 THEN
 46  	    INSERT INTO TTTempAppFundsTbl (UserLevelRoleID,DistNm,CDCRegnCd,CDCNmb,CDCNm,BorrNm,StmtNm,LoanNmb,PymtRecvDt,SBAFeeAmt,CSAFeeAmt,CDCFeeAmt,LateFeeAmt,IntApplAmt,PrinApplAmt,DiffToEscrowAmt,RefiLoan,CreatUserID,LastUpdtUserID)
 47  	     SELECT sp.UserLevelRoleID UserLevelRoleID	,
 48  		    UPPER(sp.DistNm) DistNm  ,
 49  		    sp.CDCRegnCd CDCRegnCd  ,
 50  		    sp.CDCNmb CDCNmb  ,
 51  		    UPPER(sp.CDCNm) CDCNm  ,
 52  		    UPPER(sp.BorrNm) BorrNm  ,
 53  		    UPPER(sp.StmtNm) StmtNm  ,
 54  		    ap.LoanNmb LoanNmb	,
 55  		    ap.PymtRecvDDtx PymtRecvDDtx  ,
 56  		    ap.SBAFeeAmt SBAFeeAmt  ,
 57  		    ap.CSAFeeAmt CSAFeeAmt  ,
 58  		    ap.CDCFeeAmt CDCFeeAmt  ,
 59  		    ap.LateFeeAmt LateFeeAmt  ,
 60  		    ap.IntApplAmt IntApplAmt  ,
 61  		    ap.PrinApplAmt PrinApplAmt	,
 62  		    ap.DiffToEscrowAmt DiffToEscrowAmt	,
 63  		    NULL RefiLoan  ,
 64  				USER ,
 65  				USER
 66  	       FROM PortflTbl sp
 67  		      JOIN FundsTbl ap	 ON sp.LoanNmb = ap.LoanNmb
 68  
 69  	     --WHERE	     UserLevelRoleID = @SOD
 70  	     WHERE  sp.CDCRegnCd = p_RegionNum
 71  		      AND sp.CDCNmb = p_CDC_Cert
 72  		      AND SUBSTR(sp.UserLevelRoleID, 1, 2) = SUBSTR(p_SOD, 1, 2)
 73  	       ORDER BY UPPER(sp.StmtNm);
 74  	   ELSE
 75  	      INSERT INTO CDCONLINE.TTTempAppFundsTbl (UserLevelRoleID,DistNm,CDCRegnCd,CDCNmb,CDCNm,BorrNm,StmtNm,LoanNmb,PymtRecvDt,SBAFeeAmt,CSAFeeAmt,CDCFeeAmt,LateFeeAmt,IntApplAmt,PrinApplAmt,DiffToEscrowAmt,RefiLoan,CreatUserID,LastUpdtUserID)
 76  		SELECT sp.UserLevelRoleID UserLevelRoleID  ,
 77  		       UPPER(sp.DistNm) DistNm	,
 78  		       sp.CDCRegnCd CDCRegnCd  ,
 79  		       sp.CDCNmb CDCNmb  ,
 80  		       UPPER(sp.CDCNm) CDCNm  ,
 81  		       UPPER(sp.BorrNm) BorrNm	,
 82  		       UPPER(sp.StmtNm) StmtNm	,
 83  		       ap.LoanNmb LoanNmb  ,
 84  		       ap.PymtRecvDDtx PymtRecvDDtx  ,
 85  		       ap.SBAFeeAmt SBAFeeAmt  ,
 86  		       ap.CSAFeeAmt CSAFeeAmt  ,
 87  		       ap.CDCFeeAmt CDCFeeAmt  ,
 88  		       ap.LateFeeAmt LateFeeAmt  ,
 89  		       ap.IntApplAmt IntApplAmt  ,
 90  		       ap.PrinApplAmt PrinApplAmt  ,
 91  		       ap.DiffToEscrowAmt DiffToEscrowAmt  ,
 92  		       NULL RefiLoan  ,
 93  				       USER ,
 94  				       USER
 95  		  FROM CDCONLINE.PortflTbl sp
 96  			 JOIN FundsTbl ap   ON sp.LoanNmb = ap.LoanNmb
 97  		 WHERE	sp.CDCRegnCd = p_RegionNum
 98  			  AND sp.CDCNmb = p_CDC_Cert
 99  		  ORDER BY UPPER(sp.StmtNm);
100  	   END IF;
101  	END IF;
102  	MERGE INTO CDCONLINE.TTTempAppFundsTbl p
103  	USING (SELECT p.ROWID row_id, ln.RefiLoan
104  	FROM CDCONLINE.TTTempAppFundsTbl p
105  	       JOIN LoanTbl ln	 ON p.LoanNmb = ln.LoanNmb ) src
106  	ON ( p.ROWID = src.row_id )
107  	WHEN MATCHED THEN UPDATE SET RefiLoan = src.RefiLoan;
108  	OPEN  p_SelCur1 FOR
109  	   SELECT UserLevelRoleID UserLevelRoleID  ,
110  		  UPPER(DistNm) DistNm	,
111  		  CDCRegnCd CDCRegnCd  ,
112  		  CDCNmb CDCNmb  ,
113  		  UPPER(CDCNm) CDCNm  ,
114  		  UPPER(BorrNm) BorrNm	,
115  		  UPPER(StmtNm) StmtNm	,
116  		  LoanNmb LoanNmb  ,
117  		  PymtRecvDt PymtRecvDt  ,
118  		  SBAFeeAmt SBAFeeAmt  ,
119  		  CSAFeeAmt CSAFeeAmt  ,
120  		  CDCFeeAmt CDCFeeAmt  ,
121  		  LateFeeAmt LateFeeAmt  ,
122  		  IntApplAmt IntApplAmt  ,
123  		  PrinApplAmt PrinApplAmt  ,
124  		  DiffToEscrowAmt DiffToEscrowAmt  ,
125  		  RefiLoan RefiLoan
126  	     FROM CDCONLINE.TTTempAppFundsTbl
127  		     ORDER BY UPPER(StmtNm);
128  EXCEPTION WHEN OTHERS THEN raise_application_error(-20584,'An error was encountered - '||SQLCODE||' -ERROR- '||SQLERRM);
129  END;
130  /

Procedure created.

SQL> -- Deploy component file "D:\dba_oracle_Bitbucket\database_oracle\CDCONLINE\Procedures\APPFUNDSEMAILSELCSP.sql"
SQL> create or replace
  2  PROCEDURE		 CDCONLINE.AppFundsEmailSelCSP
  3  (
  4    p_SOD IN CHAR DEFAULT NULL ,
  5    p_RegionNum IN CHAR DEFAULT NULL ,
  6    p_CDC_Cert IN CHAR DEFAULT NULL ,
  7    p_SBA IN NUMBER DEFAULT 0 ,
  8    p_SelCur1 OUT SYS_REFCURSOR
  9  )
 10  AS
 11  
 12  BEGIN
 13  
 14  	IF p_SBA = 1 THEN
 15  	 OPEN  p_SelCur1 FOR
 16  	   SELECT sp.UserLevelRoleID ,
 17  		  UPPER(sp.DistNm) DistNm ,
 18  		  sp.CDCRegnCd ,
 19  		  sp.CDCNmb ,
 20  		  UPPER(sp.CDCNm) CDCNm,
 21  		  UPPER(sp.BorrNm) BorrNm,
 22  		  --sp.StmtNm,
 23  		  ap.LoanNmb ,
 24  		  ap.PymtRecvDDtx ,
 25  		  ap.SBAFeeAmt ,
 26  		  ap.CSAFeeAmt ,
 27  		  ap.CDCFeeAmt ,
 28  		  ap.IntApplAmt ,
 29  		  ap.PrinApplAmt ,
 30  		  ap.DiffToEscrowAmt
 31  	     FROM PortflTbl sp
 32  		    JOIN FundsTbl ap   ON sp.LoanNmb = ap.LoanNmb
 33  	    WHERE  sp.CDCRegnCd = p_RegionNum
 34  		     AND sp.CDCNmb = p_CDC_Cert
 35  	     ORDER BY UPPER(sp.BorrNm) ;
 36  	ELSE
 37  	   IF LTRIM(RTRIM(p_SOD)) > 0 THEN
 38  	    OPEN  p_SelCur1 FOR
 39  	      SELECT sp.UserLevelRoleID ,
 40  		     UPPER(sp.DistNm) DistNm,
 41  		     sp.CDCRegnCd ,
 42  		     sp.CDCNmb ,
 43  		     UPPER(sp.CDCNm) CDCNm,
 44  		     UPPER(sp.BorrNm) BorrNm,
 45  		     --sp.StmtNm,
 46  		     ap.LoanNmb ,
 47  		     ap.PymtRecvDDtx ,
 48  		     ap.SBAFeeAmt ,
 49  		     ap.CSAFeeAmt ,
 50  		     ap.CDCFeeAmt ,
 51  		     ap.IntApplAmt ,
 52  		     ap.PrinApplAmt ,
 53  		     ap.DiffToEscrowAmt
 54  		FROM PortflTbl sp
 55  		       JOIN FundsTbl ap   ON sp.LoanNmb = ap.LoanNmb
 56  
 57  	      --WHERE		     SODNmb = @SOD
 58  	      WHERE  sp.CDCRegnCd = p_RegionNum
 59  		       AND sp.CDCNmb = p_CDC_Cert
 60  		       AND SUBSTR(sp.UserLevelRoleID, 1, 2) = SUBSTR(p_SOD, 1, 2)
 61  		ORDER BY UPPER(sp.BorrNm) ;
 62  	   ELSE
 63  	      OPEN  p_SelCur1 FOR
 64  		 SELECT sp.UserLevelRoleID ,
 65  			UPPER(sp.DistNm) DistNm,
 66  			sp.CDCRegnCd ,
 67  			sp.CDCNmb ,
 68  			UPPER(sp.CDCNm) CDCNm,
 69  			--sp.BorrNm,
 70  			UPPER(sp.StmtNm) StmtNm,
 71  			ap.LoanNmb ,
 72  			NVL(ap.PymtRecvDDtx, ' ') PymtRecvDDtx	,
 73  			NVL(ap.SBAFeeAmt, 0.00) SBAFee	,
 74  			NVL(ap.CSAFeeAmt, 0.00) csc_fee  ,
 75  			NVL(ap.CDCFeeAmt, 0.00) CDCFeeAmt  ,
 76  			NVL(ap.IntApplAmt, 0.00) IntAppl  ,
 77  			NVL(ap.PrinApplAmt, 0.00) PrinAppl  ,
 78  			NVL(ap.DiffToEscrowAmt, 0.00) DiffToEscrowAmt
 79  		   FROM PortflTbl sp
 80  			  JOIN FundsTbl ap   ON sp.LoanNmb = ap.LoanNmb
 81  		  WHERE  sp.CDCRegnCd = p_RegionNum
 82  			   AND sp.CDCNmb = p_CDC_Cert
 83  		   ORDER BY UPPER(sp.StmtNm) ;
 84  	   END IF;
 85  	END IF;
 86  
 87  EXCEPTION WHEN OTHERS THEN raise_application_error(-20584,'An error was encountered - '||SQLCODE||' -ERROR- '||SQLERRM);
 88  END;
 89  /

Procedure created.

SQL> set echo off

'DEPLOYPACKAGECSADEV-160ENDEDAT'||TO_CHAR(SYSDATE,'YYYY-MM-DDHH24:              
------------------------------------------------------------------              
Deploy package CSADEV-160 ended at 2020-06-29 15:41:50 on TSTCAFS1              

1 row selected.


C:\Users\srbhupat\OneDrive - U.S. Small Business Administration\Desktop\Jira_3624-06292020\jira_3624>echo off                                                                         
Checking script output for errors (no news is good news):                  

---------- CSADEV-160_TSTCAFS1_DEFAULT_20200629154147.LOG
