SQL> set termout on
SQL> select 'deployed on '||global_name||' '
  2    ||to_char(sysdate,'yyyy-mm-dd hh24:mi:ss')||' by '||user
  3  from global_name;

deployed on ORC3 2019-07-02 09:47:00 by SYS                                     
SQL> set feedback on
SQL> set heading on
SQL> set echo on
SQL> set termout off/* execute GIT Pull to ensure all files are current
SP2-0158: unknown SET option "/*"
SQL> Already up to date.  */
SP2-0734: unknown command beginning "Already up..." - rest of line ignored.
SQL> /* contents of deploy D:\dba_oracle_Bitbucket\database_oracle\DEPLOY_WORK\file_list.txt
SQL> -- D:\dba_oracle_Bitbucket\database_oracle\STGCSA\testing\test_deploy_script.sql
SQL> commit 73cd99e15aa50b962c98f6c0cbe4c502d917cfbaAuthor: John low <jlow@selectcomputing.com>Date:   Fri Jun 21 11:25:11 2019 -0400    deploy_work_updates
SQL> -- D:\dba_oracle_Bitbucket\database_oracle\STGCSA\testing\test_deploy_script_2.sql
SQL> commit 73cd99e15aa50b962c98f6c0cbe4c502d917cfbaAuthor: John low <jlow@selectcomputing.com>Date:   Fri Jun 21 11:25:11 2019 -0400    deploy_work_updates
SQL> -- D:\dba_oracle_Bitbucket\database_oracle\STGCSA\testing\test_deploy_script_3.sql
SQL> commit a68afdfe98b19a16207ae76184f674d3c6e9f787Author: Jasleen0605 <jasleen0605@gmail.com>Date:   Sun Jun 23 14:55:32 2019 -0400    updates
SQL> */
SQL> --
SQL> --
SQL> --
SQL> -- Deploy files start here:
SQL> -- Deploy component file "D:\dba_oracle_Bitbucket\database_oracle\STGCSA\testing\test_deploy_script.sql"
SQL> select sysdate from dual;

SYSDATE                                                                         
---------                                                                       
02-JUL-19                                                                       

1 row selected.

SQL> select to_char(sysdate,'xxx') from dual;
select to_char(sysdate,'xxx') from dual
                       *
ERROR at line 1:
ORA-01821: date format not recognized 


SQL> select 'all done' from dual;

'ALLDONE                                                                        
--------                                                                        
all done                                                                        

1 row selected.

SQL> -- Deploy component file "D:\dba_oracle_Bitbucket\database_oracle\STGCSA\testing\test_deploy_script_2.sql"
SQL> select 'this is script two' from dual;

'THISISSCRIPTTWO'                                                               
------------------                                                              
this is script two                                                              

1 row selected.

SQL> -- Deploy component file "D:\dba_oracle_Bitbucket\database_oracle\STGCSA\testing\test_deploy_script_3.sql"
SQL> select 'this is script three' from dual;

'THISISSCRIPTTHREE'                                                             
--------------------                                                            
this is script three                                                            

1 row selected.

SQL> set echo off
SQL> select '&&deploy_name deploy name ended at '||to_char(sysdate,'yyyy-mm-dd hh24:mi:ss') from dual;

'TESTJLDEPLOYNAMEENDEDAT'||TO_CHAR(SYSDATE,'YYY                                 
-----------------------------------------------                                 
testjl deploy name ended at 2019-07-02 09:47:01                                 

1 row selected.

SQL> spool off
